Chapter 13 Gender Pay Gap | HR Analytics in R
…
Note that too little data can make results unreliable for a complex model because there are so few records to use for each combination of values.

13.4.2 Results by Department

(Interaction of gender x dept)
To test for differences by department, examine significance of each “gender x dept” coefficient.
For the gender pay gap by department, add the “gender” + “gender x dept” coefficients from this model.

# All controls with department interaction terms. 
lm_allcontrols_dept <- lm(log_base ~ gender*dept + perfEval + age_bin + edu + seniority + jobTitle, data = gd_data_clean)

tidy(lm_allcontrols_dept)

# A tibble: 28 x 5
   term                    estimate  std.error    statistic      p.value
   <chr>                      <dbl>      <dbl>        <dbl>        <dbl>
 1 (Intercept)        11.0016       0.0237984  462.284      0.          
 2 genderFemale        0.00152592   0.0184980    0.0824912  9.34273e-  1
 3 deptSales           0.0902054    0.0177766    5.07438    4.65639e-  7
 4 deptManagement      0.0426739    0.0176537    2.41728    1.58202e-  2
 5 deptAdministration  0.00182408   0.0181763    0.100355   9.20083e-  1
 6 deptEngineering     0.0446260    0.0180041    2.47865    1.33567e-  2
 7 perfEval           -0.0000291152 0.00295858  -0.00984092 9.92150e-  1
 8 age_bin[25,35)     -0.336629     0.0125206  -26.8860     1.73518e-119
 9 age_bin[45,55)     -0.100342     0.0126338   -7.94233    5.46121e- 15
10 age_bin[35,45)     -0.196490     0.0128459  -15.2959     1.73511e- 47
# ... with 18 more rows
…
13.4.3 Results by Job Title

(Interaction of gender x job )
To test for differences by department, examine significance of each “gender x job title” coefficient.
For the gender pay gap by job, add the “gender” + “gender x job title” coefficients from this model.

# All controls with department interaction terms. 
lm_allcontrols_job <- lm(log_base ~ gender*jobTitle + perfEval + age_bin + edu + seniority + dept, data = gd_data_clean)

tidy(lm_allcontrols_job)

# A tibble: 33 x 5
   term                        estimate std.error statistic     p.value
   <chr>                          <dbl>     <dbl>     <dbl>       <dbl>
 1 (Intercept)               11.0638    0.0442857 249.828   0.         
 2 genderFemale              -0.0724912 0.0416612  -1.74002 8.21742e- 2
 3 jobTitleSoftware Engineer  0.289254  0.0418482   6.91198 8.66714e-12
 4 jobTitleData Scientist     0.142351  0.0435503   3.26866 1.11867e- 3
 5 jobTitleFinancial Analyst  0.202106  0.0433312   4.66421 3.53339e- 6
 6 jobTitleGraphic Designer   0.110316  0.0439206   2.51171 1.21768e- 2
 7 jobTitleIT                 0.130398  0.0441617   2.95273 3.22592e- 3
 8 jobTitleSales Associate    0.166820  0.0438793   3.80180 1.52646e- 4
 9 jobTitleDriver             0.106498  0.0442196   2.40840 1.62091e- 2
10 jobTitleManager            0.455642  0.0426281  10.6888  2.77904e-25
# ... with 23 more rows
…
