Chapter 18 Organisational network analysis | HR Analytics in R
…
Let us identify first the main characters contained either as Source or as a target and later the 50 most important charcters:

main_ch <- cooc_all_edges %>%
  select(-Type) %>%
  gather(x, name, Source:Target) %>%
  group_by(name) %>%
  summarise(sum_weight = sum(weight)) %>%
  ungroup()

main_ch_l <- main_ch %>%
  arrange(desc(sum_weight)) %>%
  top_n(50, sum_weight)
main_ch_l

# A tibble: 50 x 2
   name               sum_weight
   <chr>                   <dbl>
 1 Tyrion-Lannister         2873
 2 Jon-Snow                 2757
 3 Cersei-Lannister         2232
 4 Joffrey-Baratheon        1762
 5 Eddard-Stark             1649
 6 Daenerys-Targaryen       1608
 7 Jaime-Lannister          1569
 8 Sansa-Stark              1547
 9 Bran-Stark               1508
10 Robert-Baratheon         1488
# ... with 40 more rows
…
cooc_all_f_graph %>%
  activate(nodes) %>% # %N>%
  as_tibble()

# A tibble: 50 x 7
   name               n_rank_trv neighbors group center dist_to_center keyplayer
   <chr>                   <int>     <dbl> <int> <lgl>           <dbl> <lgl>    
 1 Aemon-Targaryen-(~         13         7     3 FALSE               2 TRUE     
 2 Arya-Stark                 25        24     1 FALSE               1 TRUE     
 3 Barristan-Selmy            41        17     4 FALSE               1 FALSE    
 4 Bran-Stark                 20        22     2 FALSE               1 FALSE    
 5 Brienne-of-Tarth            5        16     1 FALSE               1 FALSE    
 6 Bronn                      34        10     1 FALSE               1 FALSE    
 7 Catelyn-Stark              38        26     1 FALSE               1 FALSE    
 8 Cersei-Lannister            8        30     1 TRUE                1 FALSE    
 9 Daenerys-Targaryen         44        10     4 FALSE               2 FALSE    
10 Davos-Seaworth             31         6     5 FALSE               2 TRUE     
# ... with 40 more rows

cooc_all_f_graph %>%
  activate(edges) %>% # %E>%
  as_tibble()

# A tibble: 402 x 6
    from    to Type          id weight centrality_e
   <int> <int> <chr>      <dbl>  <dbl>        <dbl>
 1     1    15 Undirected    54      5         46  
 2     1    20 Undirected    57     25          0  
 3     1    23 Undirected    58    110          0  
 4     1    28 Undirected    60      5         25.5
 5     1    39 Undirected    63      5         67.5
 6     1    41 Undirected    64     99          0  
 7     1    44 Undirected    65     12          0  
 8     2     4 Undirected   299     40          0  
 9     2     7 Undirected   303      8          6.5
10     2     8 Undirected   304     25          0  
# ... with 392 more rows
…
