Chapter 26 Ranking Medical Schools | HR Analytics in R
…
Warning: NAs introduced by coercion

Warning: All formats failed to parse. No formats found.

data_parsed2

# A tibble: 124 x 5
   ranking is_male family_name first_name     birth_date
     <int> <lgl>   <chr>       <chr>          <date>    
 1      NA FALSE   le          28             NA        
 2      NA FALSE   Mme         Bourhis        NA        
 3      NA FALSE   Mme         Meynard        NA        
 4      NA FALSE   M           Orion          NA        
 5      NA FALSE   Mme         Lemonnier      NA        
 6      NA FALSE   M           Pantalacci     NA        
 7      NA FALSE   M           Jean           NA        
 8      NA FALSE   Mme         Chaligne       NA        
 9      NA FALSE   Mme         Brillat        NA        
10      NA FALSE   M           Meguerditchian NA        
# ... with 114 more rows
…
