Chapter 4 Data Wrangling | HR Analytics in R
…
This code is identical to the previous code that created summary_temp, but with an extra group_by(month) added before the summarize(). Grouping the weather dataset by month and then applying the summarize() functions yields a data frame that displays the mean and standard deviation temperature split by the 12 months of the year.

It is important to note that the  group_by() function doesn’t change data frames by itself. Rather it changes the meta-data, or data about the data, specifically the grouping structure. It is only after we apply the summarize() function that the data frame changes.

For example, let’s consider the  diamonds data frame included in the ggplot2 package. Run this code:

diamonds

# A tibble: 53,940 x 10
      carat cut       color clarity   depth table price     x     y       z
      <dbl> <ord>     <ord> <ord>     <dbl> <dbl> <int> <dbl> <dbl>   <dbl>
 1 0.23     Ideal     E     SI2     61.5       55   326  3.95 3.98  2.43   
 2 0.21     Premium   E     SI1     59.8       61   326  3.89 3.84  2.31   
 3 0.23     Good      E     VS1     56.9       65   327  4.05 4.07  2.31   
 4 0.290000 Premium   I     VS2     62.4       58   334  4.2  4.23  2.63   
 5 0.31     Good      J     SI2     63.3       58   335  4.34 4.350 2.75   
 6 0.24     Very Good J     VVS2    62.8       57   336  3.94 3.96  2.48   
 7 0.24     Very Good I     VVS1    62.3       57   336  3.95 3.98  2.47   
 8 0.26     Very Good H     SI1     61.9       55   337  4.07 4.11  2.53000
 9 0.22     Fair      E     VS2     65.1000    61   337  3.87 3.78  2.49   
10 0.23     Very Good H     VS1     59.4       61   338  4    4.05  2.39   
# ... with 53,930 more rows

Observe that the first line of the output reads # A tibble: 53,940 x 10. This is an example of meta-data, in this case the number of observations/rows and variables/columns in diamonds. The actual data itself are the subsequent table of values. Now let’s pipe the diamonds data frame into group_by(cut):

diamonds %>% 
  group_by(cut)

# A tibble: 53,940 x 10
# Groups:   cut [5]
      carat cut       color clarity   depth table price     x     y       z
      <dbl> <ord>     <ord> <ord>     <dbl> <dbl> <int> <dbl> <dbl>   <dbl>
 1 0.23     Ideal     E     SI2     61.5       55   326  3.95 3.98  2.43   
 2 0.21     Premium   E     SI1     59.8       61   326  3.89 3.84  2.31   
 3 0.23     Good      E     VS1     56.9       65   327  4.05 4.07  2.31   
 4 0.290000 Premium   I     VS2     62.4       58   334  4.2  4.23  2.63   
 5 0.31     Good      J     SI2     63.3       58   335  4.34 4.350 2.75   
 6 0.24     Very Good J     VVS2    62.8       57   336  3.94 3.96  2.48   
 7 0.24     Very Good I     VVS1    62.3       57   336  3.95 3.98  2.47   
 8 0.26     Very Good H     SI1     61.9       55   337  4.07 4.11  2.53000
 9 0.22     Fair      E     VS2     65.1000    61   337  3.87 3.78  2.49   
10 0.23     Very Good H     VS1     59.4       61   338  4    4.05  2.39   
# ... with 53,930 more rows
…
If you would like to remove this grouping structure meta-data, we can pipe the resulting data frame into the  ungroup() function:

diamonds %>% 
  group_by(cut) %>% 
  ungroup()

# A tibble: 53,940 x 10
      carat cut       color clarity   depth table price     x     y       z
      <dbl> <ord>     <ord> <ord>     <dbl> <dbl> <int> <dbl> <dbl>   <dbl>
 1 0.23     Ideal     E     SI2     61.5       55   326  3.95 3.98  2.43   
 2 0.21     Premium   E     SI1     59.8       61   326  3.89 3.84  2.31   
 3 0.23     Good      E     VS1     56.9       65   327  4.05 4.07  2.31   
 4 0.290000 Premium   I     VS2     62.4       58   334  4.2  4.23  2.63   
 5 0.31     Good      J     SI2     63.3       58   335  4.34 4.350 2.75   
 6 0.24     Very Good J     VVS2    62.8       57   336  3.94 3.96  2.48   
 7 0.24     Very Good I     VVS1    62.3       57   336  3.95 3.98  2.47   
 8 0.26     Very Good H     SI1     61.9       55   337  4.07 4.11  2.53000
 9 0.22     Fair      E     VS2     65.1000    61   337  3.87 3.78  2.49   
10 0.23     Very Good H     VS1     59.4       61   338  4    4.05  2.39   
# ... with 53,930 more rows
…
We see that Newark ("EWR") had the most flights departing in 2013 followed by "JFK" and lastly by LaGuardia ("LGA"). Note there is a subtle but important difference between sum() and n(); while sum() returns the sum of a numerical variable, n() returns a count of the number of rows/observations.

4.4.1 Grouping by more than one variable

You are not limited to grouping by one variable. Say you want to know the number of flights leaving each of the three New York City airports for each month. We can also group by a second variable month using group_by(origin, month):

by_origin_monthly <- flights %>% 
  group_by(origin, month) %>% 
  summarize(count = n())
by_origin_monthly

# A tibble: 36 x 3
# Groups:   origin [3]
   origin month count
   <chr>  <int> <int>
 1 EWR        1  9893
 2 EWR        2  9107
 3 EWR        3 10420
 4 EWR        4 10531
 5 EWR        5 10592
 6 EWR        6 10175
 7 EWR        7 10475
 8 EWR        8 10359
 9 EWR        9  9550
10 EWR       10 10104
# ... with 26 more rows
…
(LC3.12) What can we say about the distribution of gain? Describe it in a few sentences using the plot and the gain_summary data frame values.

4.6 arrange and sort rows

One of the most commonly performed data wrangling tasks is to sort a data frame’s rows in the alphanumeric order of one of the variables. The dplyr package’s arrange() function  allows us to sort/reorder a data frame’s rows according to the values of the specified variable.

Suppose we are interested in determining the most frequent destination airports for all domestic flights departing from New York City in 2013:

freq_dest <- flights %>% 
  group_by(dest) %>% 
  summarize(num_flights = n())
freq_dest

# A tibble: 105 x 2
   dest  num_flights
   <chr>       <int>
 1 ABQ           254
 2 ACK           265
 3 ALB           439
 4 ANC             8
 5 ATL         17215
 6 AUS          2439
 7 AVL           275
 8 BDL           443
 9 BGR           375
10 BHM           297
# ... with 95 more rows

Observe that by default the rows of the resulting freq_dest data frame are sorted in alphabetical order of destination. Say instead we would like to see the same data, but sorted from the most to the least number of flights (num_flights) instead:

freq_dest %>% 
  arrange(num_flights)

# A tibble: 105 x 2
   dest  num_flights
   <chr>       <int>
 1 LEX             1
 2 LGA             1
 3 ANC             8
 4 SBN            10
 5 HDN            15
 6 MTJ            15
 7 EYW            17
 8 PSP            19
 9 JAC            25
10 BZN            36
# ... with 95 more rows

This is, however, the opposite of what we want. The rows are sorted with the least frequent destination airports displayed first. This is because arrange() always returns rows sorted in ascending order by default. To switch the ordering to be in “descending” order instead, we use the desc()  function as so:

freq_dest %>% 
  arrange(desc(num_flights))

# A tibble: 105 x 2
   dest  num_flights
   <chr>       <int>
 1 ORD         17283
 2 ATL         17215
 3 LAX         16174
 4 BOS         15508
 5 MCO         14082
 6 CLT         14064
 7 SFO         13331
 8 FLL         12055
 9 MIA         11728
10 DCA          9705
# ... with 95 more rows
…
flights_with_airport_names <- flights %>% 
  inner_join(airports, by = c("dest" = "faa"))
View(flights_with_airport_names)

Let’s construct the chain of pipe operators %>% that computes the number of flights from NYC to each destination, but also includes information about each destination airport:

named_dests <- flights %>%
  group_by(dest) %>%
  summarize(num_flights = n()) %>%
  arrange(desc(num_flights)) %>%
  inner_join(airports, by = c("dest" = "faa")) %>%
  rename(airport_name = name)
named_dests

# A tibble: 101 x 9
   dest  num_flights airport_name         lat       lon   alt    tz dst   tzone 
   <chr>       <int> <chr>              <dbl>     <dbl> <dbl> <dbl> <chr> <chr> 
 1 ORD         17283 Chicago Ohare I~ 41.9786  -87.9048   668    -6 A     Ameri~
 2 ATL         17215 Hartsfield Jack~ 33.6367  -84.4281  1026    -5 A     Ameri~
 3 LAX         16174 Los Angeles Intl 33.9425 -118.408    126    -8 A     Ameri~
 4 BOS         15508 General Edward ~ 42.3643  -71.0052    19    -5 A     Ameri~
 5 MCO         14082 Orlando Intl     28.4294  -81.3090    96    -5 A     Ameri~
 6 CLT         14064 Charlotte Dougl~ 35.214   -80.9431   748    -5 A     Ameri~
 7 SFO         13331 San Francisco I~ 37.6190 -122.375     13    -8 A     Ameri~
 8 FLL         12055 Fort Lauderdale~ 26.0726  -80.1528     9    -5 A     Ameri~
 9 MIA         11728 Miami Intl       25.7932  -80.2906     8    -5 A     Ameri~
10 DCA          9705 Ronald Reagan W~ 38.8521  -77.0377    15    -5 A     Ameri~
# ... with 91 more rows
…
